<?xml version="1.0" encoding="UTF-8"?>
<svg width="59px" height="42px" viewBox="0 0 59 42" version="1.1" xmlns="http://www.w3.org/2000/svg" xmlns:xlink="http://www.w3.org/1999/xlink">
    <!-- Generator: Sketch 58 (84663) - https://sketch.com -->
    <title>heart</title>
    <desc>Created with Sketch.</desc>
    <g id="Page-1" stroke="none" stroke-width="1" fill="none" fill-rule="evenodd">
        <g id="EXIS_ESOTERIKI_BUSINESS-SOFTWARE-V3" transform="translate(-1149.000000, -2392.000000)" fill="#777777" fill-rule="nonzero">
            <g id="heart" transform="translate(1149.000000, 2392.000000)">
                <path d="M57.2416471,20.1272727 L52.334803,20.1272727 C54.374727,15.5454545 54.1541946,11.8363636 53.3823315,9.32727273 C52.0591376,4.85454545 47.5933581,0 40.9773886,0 C39.21313,0 37.4488715,0.327272727 35.6294798,0.981818182 C32.4868943,2.12727273 30.3918372,3.38181818 29.4545749,4.03636364 C28.5173125,3.38181818 26.4773886,2.12727273 23.2796699,0.981818182 C21.4602783,0.327272727 19.6408867,0 17.9317612,0 C11.3157916,0 6.85001213,4.85454545 5.52681822,9.32727273 C4.7549551,12 4.4792897,16.0363636 7.07054445,21.1090909 L1.11617183,21.1090909 C0.619974112,21.1090909 0.234042553,21.4909091 0.234042553,21.9818182 C0.234042553,22.4727273 0.619974112,22.8545455 1.11617183,22.8545455 L8.11807297,22.8545455 C8.39373837,23.3454545 8.72453685,23.8363636 9.11046841,24.3272727 C14.8443087,32.5090909 27.3043848,41.4 29.564841,41.9454545 L29.564841,42 C29.564841,42 29.6199741,42 29.6751072,41.9454545 C29.7302403,41.9454545 29.7853734,41.9454545 29.8405064,41.9454545 L29.8405064,41.8909091 C31.7701642,40.9636364 43.7340426,33.3272727 50.0192137,24.2727273 C50.6256775,23.4545455 51.1218753,22.6363636 51.5629399,21.8181818 L57.3519133,21.8181818 C57.848111,21.8181818 58.2340426,21.4363636 58.2340426,20.9454545 C58.2340426,20.4545455 57.7378448,20.1272727 57.2416471,20.1272727 Z M48.4203543,23.3454545 C42.5762479,31.8 31.8252973,38.6181818 29.509708,40.0909091 C27.1389855,38.6181818 16.443168,31.7454545 10.5439285,23.3454545 C10.4336623,23.1818182 10.3233962,23.0181818 10.21313,22.8545455 L18.3176927,22.8545455 C18.6484912,22.8545455 18.9792897,22.6909091 19.1446889,22.3636364 L22.8386053,15.1636364 L28.6275787,29.8363636 C28.7378448,30.1636364 29.1237764,30.3818182 29.4545749,30.3818182 C29.4545749,30.3818182 29.4545749,30.3818182 29.509708,30.3818182 C29.8956395,30.3818182 30.226438,30.1090909 30.3367042,29.7272727 L35.4089475,12.5454545 L38.1104684,21.2181818 C38.2207346,21.5454545 38.4964,21.7636364 38.8271984,21.8181818 C39.1579969,21.8727273 39.4887954,21.7090909 39.7093277,21.4363636 L41.8595178,18.3272727 L43.6789095,21.3818182 C43.8443087,21.6545455 44.1199741,21.8181818 44.4507726,21.8181818 L49.4127498,21.8181818 C49.0819513,22.3636364 48.7511528,22.8545455 48.4203543,23.3454545 Z M50.4051452,20.1272727 L45.0021034,20.1272727 L42.7416471,16.3090909 C42.5762479,16.0363636 42.3005825,15.8727273 41.969784,15.8727273 C41.6389855,15.8727273 41.3633201,15.9818182 41.1979209,16.2545455 L39.3233962,18.9818182 L36.2910768,9.21818182 C36.1808106,8.83636364 35.7948791,8.61818182 35.4089475,8.56363636 C35.0230159,8.56363636 34.6370844,8.83636364 34.5268182,9.21818182 L29.3994418,26.7272727 L23.8310007,12.6545455 C23.7207346,12.3272727 23.3899361,12.1090909 23.0591376,12.1090909 C22.6732061,12.1090909 22.3975407,12.2727273 22.2321414,12.6 L17.8766281,21.0545455 L9.11046841,21.0545455 C6.90514521,17.0727273 6.29868134,13.2545455 7.29107677,9.81818182 C8.44887145,5.94545455 12.253054,1.8 17.9868943,1.8 C19.5306205,1.8 21.1294798,2.12727273 22.7283391,2.67272727 C26.753054,4.14545455 28.9032441,5.83636364 28.9583772,5.83636364 C29.2891756,6.10909091 29.7302403,6.10909091 30.0610388,5.83636364 C30.0610388,5.83636364 32.2112289,4.14545455 36.2910768,2.67272727 C37.8899361,2.07272727 39.4887954,1.8 41.0325216,1.8 C46.7112289,1.8 50.5705445,5.94545455 51.7283391,9.81818182 C52.6656015,12.9818182 52.1694038,16.4727273 50.4051452,20.1272727 Z" id="Shape"></path>
            </g>
        </g>
    </g>
</svg>