<?xml version="1.0" encoding="UTF-8"?>
<svg width="60px" height="60px" viewBox="0 0 60 60" version="1.1" xmlns="http://www.w3.org/2000/svg" xmlns:xlink="http://www.w3.org/1999/xlink">
    <!-- Generator: Sketch 58 (84663) - https://sketch.com -->
    <title>public sector</title>
    <desc>Created with Sketch.</desc>
    <g id="Page-1" stroke="none" stroke-width="1" fill="none" fill-rule="evenodd">
        <g id="Desktop-HD" transform="translate(-69.000000, -350.000000)" fill="#777777" fill-rule="nonzero">
            <g id="public-sector" transform="translate(69.000000, 350.000000)">
                <path d="M56.0474383,26.0495729 C54.1373819,26.0521165 52.5016148,27.4183304 52.1588912,29.2973381 L46.4510629,29.2973381 C46.2806413,25.4116612 44.7351001,21.7129396 42.090227,18.8611761 L46.1387646,14.8127491 C47.8050357,15.9877128 50.0918506,15.7012413 51.416785,14.1515665 C52.7417195,12.6018917 52.6692562,10.2984047 51.2495383,8.83506662 C49.8298203,7.37172852 47.5295209,7.22955088 45.9403954,8.50691743 C44.3512698,9.78428397 43.9956771,12.0613135 45.1196794,13.762353 L41.0510211,17.8309002 C38.1828949,15.2231535 34.4838512,13.715444 30.6099403,13.5751742 L30.6099403,7.86238032 C32.6274862,7.54949159 34.0752048,5.75223538 33.9512089,3.71439479 C33.827213,1.67655421 32.1722667,0.0680745808 30.1316681,0.00209702687 C28.0910695,-0.0638805271 26.3356706,1.43433428 26.0802874,3.45990861 C25.8249042,5.48548295 27.1534946,7.37250403 29.1466135,7.81506738 L29.1466135,13.5850514 C25.3085722,13.782787 21.6617646,15.3216547 18.8423538,17.9332084 L14.7969868,13.8879518 C15.9821844,12.2327079 15.7127542,9.94739539 14.1751061,8.61314788 C12.6374579,7.27890036 10.3369204,7.33420135 8.86516087,8.74078987 C7.39340133,10.1473784 7.23409483,12.442997 8.49746037,14.0393816 C9.76082591,15.6357662 12.0316745,16.0082853 13.7388795,14.899205 L17.8118059,18.9720201 C15.1994698,21.8411282 13.6889807,25.5434732 13.548769,29.4211078 L7.86618314,29.4211078 C7.56713737,27.4016894 5.77996828,25.9418358 3.74143712,26.0517986 C1.70290595,26.1617614 0.0831546895,27.8053917 0.00308766169,29.8452603 C-0.0769793661,31.8851289 1.40895889,33.6506541 3.43259971,33.9200528 C5.45624052,34.1894515 7.35233694,32.8741622 7.80874756,30.8843946 L13.5581587,30.8843946 C13.7551261,34.7132602 15.2870689,38.352183 17.8878988,41.1691064 L13.8655792,45.1913162 C12.1993081,44.0163525 9.91249322,44.302824 8.5875588,45.8524988 C7.26262437,47.4021736 7.33508759,49.7056606 8.75480555,51.1689987 C10.1745235,52.6323368 12.4748229,52.7745144 14.0639484,51.4971479 C15.653074,50.2197814 16.0086667,47.9427518 14.8846644,46.2417123 L18.9247878,42.2016992 C21.7650306,44.7961192 25.4268352,46.3097297 29.2700207,46.4779112 L29.2700207,52.1636343 C27.2647609,52.5413595 25.8766643,54.3834392 26.0663534,56.4150749 C26.2560425,58.4467105 27.961157,60 30.0016841,60 C32.0422113,60 33.7473257,58.4467105 33.9370149,56.4150749 C34.126704,54.3834392 32.7386073,52.5413595 30.7333475,52.1636343 L30.7333475,46.4779112 C34.6098245,46.3080119 38.3005741,44.7695106 41.1499176,42.1357294 L45.1754078,46.1611096 C44.0109457,47.8357014 44.3126397,50.121434 45.8717154,51.4365656 C47.4307911,52.7516972 49.7347379,52.6639081 51.1892095,51.2339489 C52.6436812,49.8039898 52.7705532,47.5019272 51.4820293,45.9208034 C50.1935054,44.3396797 47.9131586,43.9992533 46.2190037,45.1351016 L42.1819289,41.0985028 C44.7721595,38.2591729 46.2830959,34.6004667 46.4510629,30.7608688 L52.1687686,30.7608688 C52.5689161,32.8061098 54.4884494,34.1892091 56.5552556,33.9215054 C58.6220618,33.6538018 60.1258474,31.8272961 59.9916825,29.7476037 C59.8575177,27.6679113 58.1315105,26.0497541 56.0474383,26.0498168 L56.0474383,26.0495729 Z M46.6592212,9.82525772 C47.6312839,8.85322646 49.2073045,8.85322911 50.179364,9.82526364 C51.1514234,10.7972982 51.1514234,12.3732758 50.179364,13.3453103 C49.2073045,14.3173449 47.6312839,14.3173475 46.6592212,13.3453162 C46.1903757,12.8796149 45.9267162,12.246106 45.9267162,11.585287 C45.9267162,10.924468 46.1903757,10.2909591 46.6592212,9.82525772 L46.6592212,9.82525772 Z M27.5125652,3.95686766 C27.5125652,2.58220276 28.6269817,1.46781669 30.0016841,1.46781669 C31.3763866,1.46781669 32.4908031,2.58220276 32.4908031,3.95686766 C32.4908031,5.33153255 31.3763866,6.44591863 30.0016841,6.44591863 C28.6276225,6.44437301 27.5141109,5.33089182 27.5125652,3.95686766 L27.5125652,3.95686766 Z M9.82448026,13.3448285 C8.85242246,12.3727923 8.85242511,10.7968147 9.82448618,9.82478179 C10.7965472,8.8527489 12.3725679,8.8527489 13.344629,9.82478179 C14.31669,10.7968147 14.3166927,12.3727923 13.3446349,13.3448285 C12.8799753,13.8156333 12.2460542,14.0806526 11.5845576,14.0806526 C10.9230609,14.0806526 10.2891399,13.8156333 9.82448026,13.3448285 L9.82448026,13.3448285 Z M3.95592997,32.4909617 C2.94917534,32.4909617 2.04155226,31.8845239 1.65628394,30.9544293 C1.27101562,30.0243347 1.48397407,28.9537495 2.1958571,28.2418859 C2.90774012,27.5300223 3.97835455,27.3170697 4.90847455,27.7023275 C5.83859455,28.0875853 6.4450489,28.9951836 6.4450489,30.0019107 C6.44350324,31.3759349 5.32999165,32.4894161 3.95592997,32.4909617 Z M13.3441471,50.1785637 C12.3826782,51.1424162 10.8252052,51.1550153 9.84826811,50.2068435 C8.87133105,49.2586717 8.83743387,47.7015591 9.77218304,46.7117736 C10.7069322,45.721988 12.2634781,45.666801 13.2659811,46.5879016 C13.3209487,46.6794093 13.3960078,46.7572184 13.4854801,46.8154427 C14.3174029,47.8035959 14.2560434,49.2636894 13.3441471,50.1785637 L13.3441471,50.1785637 Z M32.4903153,56.0469538 C32.4918937,57.401199 31.4104439,58.5082063 30.0564951,58.5382915 C28.7025462,58.5683767 27.5729892,57.5104989 27.5144088,56.1575203 C27.4558285,54.8045417 28.4897234,53.6529972 29.841206,53.5659509 C29.9464907,53.5901757 30.0559021,53.5901757 30.1611868,53.5659509 C31.4698615,53.6505828 32.4886566,54.7355827 32.4908031,56.0469538 L32.4903153,56.0469538 Z M50.178888,46.658993 C51.1509458,47.6310291 51.1509432,49.2070068 50.1788821,50.1790397 C49.206821,51.1510725 47.6308004,51.1510725 46.6587393,50.1790397 C45.6866782,49.2070068 45.6866756,47.6310291 46.6587334,46.658993 C47.123393,46.1881881 47.757314,45.9231689 48.4188107,45.9231689 C49.0803074,45.9231689 49.7142284,46.1881881 50.178888,46.658993 L50.178888,46.658993 Z M30.0016841,45.031696 C21.7156875,45.031696 14.99856,38.314752 14.99856,30.0289815 C14.99856,21.7432111 21.7156875,15.026267 30.0016841,15.026267 C38.2876808,15.026267 45.0048082,21.7432111 45.0048082,30.0289815 C44.9954671,38.3108797 38.2838085,45.0223551 30.0016841,45.031696 L30.0016841,45.031696 Z M56.0474383,32.4909617 C55.0406837,32.4909617 54.1330606,31.8845239 53.7477923,30.9544293 C53.362524,30.0243347 53.5754824,28.9537495 54.2873654,28.2418859 C54.9992485,27.5300223 56.0698629,27.3170697 56.9999829,27.7023275 C57.9301029,28.0875853 58.5365572,28.9951836 58.5365572,30.0019107 C58.5350116,31.3759349 57.4215,32.4894161 56.0474383,32.4909617 Z" id="Shape"></path>
                <path d="M39.0649891,22.7363235 L39.0626989,22.7345155 C36.9533012,20.3606977 33.9593516,18.9604373 30.7852279,18.8631696 C30.7409853,18.8579766 30.6963544,18.8571429 30.6519166,18.8600357 C30.5774263,18.8585893 30.5028154,18.8571429 30.4279634,18.8571429 C30.3531114,18.8571429 30.2785005,18.8585893 30.2038896,18.8600357 C30.1596922,18.8571429 30.1153043,18.8580083 30.0713016,18.8631696 C26.8967731,18.9605089 23.9024876,20.3610888 21.7929868,22.7353593 C21.7915404,22.7365646 21.790094,22.7375289 21.7887681,22.7387342 C21.7412741,22.780523 21.6994911,22.8283852 21.6644969,22.8810862 C17.9213582,27.2165446 17.9213582,33.6404778 21.6644969,37.9759361 C21.6994837,38.0286787 21.741267,38.0765817 21.7887681,38.1184086 C21.790094,38.119614 21.7916609,38.1206988 21.7932279,38.1219041 C23.9004769,40.4936609 26.8908204,41.8938102 30.0618999,41.9934911 C30.0924651,41.9976334 30.1232648,42 30.1541088,42 C30.1690551,42 30.1836398,41.9978304 30.1984656,41.9969866 C30.275005,41.998433 30.351665,42 30.4285661,42 C30.5054671,42 30.5821271,41.998433 30.6586666,41.9969866 C30.6734923,41.9978304 30.688077,42 30.7030233,42 C30.7338673,42 30.7646671,41.9976334 30.7952323,41.9934911 C33.9662832,41.8937986 36.9566079,40.4937018 39.0639043,38.1220247 L39.0657123,38.1206988 C39.114412,38.0783879 39.1572212,38.0297408 39.1929968,37.9760567 C42.9356677,33.6406987 42.9356677,27.2172879 39.1929968,22.8819299 C39.1570677,22.8278603 39.1140103,22.7788834 39.0649891,22.7363235 Z M38.5477752,36.4699708 C37.9841765,35.9109687 37.3638488,35.4122322 36.6968463,34.9818446 C37.0667774,33.7366815 37.2780569,32.4498025 37.3256751,31.1517217 L40.5241807,31.1517217 C40.3888029,33.0772773 39.7027591,34.9233316 38.5477752,36.4699708 L38.5477752,36.4699708 Z M20.3317461,31.1517217 L23.5302517,31.1517217 C23.5779268,32.4535889 23.7902702,33.7441787 24.1622144,34.9926927 C23.4957439,35.4212449 22.8752089,35.9173357 22.3104417,36.4731047 C21.1540544,34.9258557 20.4671754,33.0786055 20.3317461,31.1517217 L20.3317461,31.1517217 Z M22.3103212,24.3840382 C22.8751316,24.9400279 23.4956116,25.4364705 24.1619734,25.8655349 C23.790235,27.1136763 23.5779742,28.4038515 23.5302517,29.7053006 L20.3317461,29.7053006 C20.4671898,27.7784768 21.1540226,25.93128 22.3103212,24.3840382 L22.3103212,24.3840382 Z M31.1511709,27.6851326 C32.623964,27.6008476 34.0664897,27.2320896 35.3990505,26.599232 C35.674045,27.6134905 35.834752,28.655321 35.8781754,29.7053006 L31.1511709,29.7053006 L31.1511709,27.6851326 Z M31.1511709,26.2353366 L31.1511709,20.6484148 C32.8303381,21.672963 34.121625,23.253178 34.9296888,25.2194669 C33.7494887,25.8039277 32.46534,26.1491762 31.1511709,26.2353366 L31.1511709,26.2353366 Z M29.7047559,20.6484148 L29.7047559,26.2322027 C28.3920206,26.1400079 27.1099446,25.7922179 25.9305772,25.2083776 C26.7396053,23.2471512 28.0293253,21.6705523 29.7047559,20.6484148 L29.7047559,20.6484148 Z M29.7047559,27.6819987 L29.7047559,29.7053006 L24.9777514,29.7053006 C25.0213133,28.651361 25.1830385,27.6056413 25.4598897,26.5877812 C26.7918707,27.2205684 28.2328548,27.5920171 29.7047559,27.6819987 L29.7047559,27.6819987 Z M24.9776309,31.1517217 L29.7047559,31.1517217 L29.7047559,33.1758674 C28.2331821,33.2673164 26.7926174,33.638996 25.4604924,34.2709286 C25.1833259,33.2525374 25.0213578,32.2062503 24.9776309,31.1517217 L24.9776309,31.1517217 Z M29.7047559,34.6249402 L29.7047559,40.2092102 C28.0286021,39.1868316 26.7388821,37.6101121 25.9305772,35.6488858 C27.1100142,35.0652102 28.3920492,34.7173904 29.7047559,34.6249402 L29.7047559,34.6249402 Z M31.1511709,40.2092102 L31.1511709,34.6213241 C32.4654674,34.707267 33.7497446,35.052569 34.9299299,35.6373144 C34.1218661,37.6038443 32.8305791,39.1849031 31.1511709,40.2092102 Z M31.1511709,33.1726129 L31.1511709,31.1517217 L35.8782959,31.1517217 C35.8347716,32.2021128 35.6739438,33.2443448 35.3988094,34.2589957 C34.066076,33.6267786 32.6237876,33.2578967 31.1511709,33.1726129 L31.1511709,33.1726129 Z M37.3256751,29.7053006 C37.278028,28.4075084 37.0667896,27.1209171 36.6969668,25.8760215 C37.3639434,25.4453282 37.9842285,24.9463106 38.5477752,24.3870516 C39.7027411,25.9337006 40.3887828,27.7797493 40.5241807,29.7053006 L37.3256751,29.7053006 Z M37.5998913,23.2890975 C37.166831,23.7275967 36.6941288,24.1250878 36.1878287,24.4764886 C35.6204084,23.1302508 34.7983369,21.9062652 33.7667712,20.8717663 C35.2103475,21.3782532 36.5206953,22.2046411 37.5997708,23.2890975 L37.5998913,23.2890975 Z M27.0892761,20.8717663 C26.0599408,21.9038612 25.2391955,23.1246917 24.6719552,24.4674485 C24.1657064,24.1175882 23.6924886,23.7221961 23.2582051,23.2862046 C24.3369888,22.2030602 25.6465861,21.3776928 27.0891556,20.8717663 L27.0892761,20.8717663 Z M23.2583256,37.5703356 C23.6925973,37.1343787 24.1657718,36.738989 24.6719552,36.3890917 C25.2391325,37.7319245 26.0598378,38.9528383 27.0891556,39.985015 C25.6466085,39.4789982 24.3370529,38.6535486 23.2583256,37.5703356 L23.2583256,37.5703356 Z M33.7667712,39.985015 C34.7981813,38.9506903 35.6202024,37.7269645 36.1877082,36.3810159 C36.6939055,36.7324986 37.1665239,37.1300275 37.5995297,37.5685275 C36.520446,38.6526581 35.2101879,39.478753 33.7667712,39.985015 Z" id="Shape"></path>
            </g>
        </g>
    </g>
</svg>