<?xml version="1.0" encoding="UTF-8"?>
<svg width="43px" height="54px" viewBox="0 0 43 54" version="1.1" xmlns="http://www.w3.org/2000/svg" xmlns:xlink="http://www.w3.org/1999/xlink">
    <!-- Generator: Sketch 58 (84663) - https://sketch.com -->
    <title>innovation</title>
    <desc>Created with Sketch.</desc>
    <g id="Page-1" stroke="none" stroke-width="1" fill="none" fill-rule="evenodd">
        <g id="EXIS_ESOTERIKI_BUSINESS-SOFTWARE-V3" transform="translate(-1157.000000, -2247.000000)" fill="#777777" fill-rule="nonzero">
            <g id="innovation" transform="translate(1157.000000, 2247.000000)">
                <path d="M31.7986906,19.0152566 L29.4316316,19.0152566 C29.2870903,18.5565136 29.1032612,18.1123603 28.8813951,17.6862357 L30.5550311,16.0124802 C30.7641835,15.8033259 30.8793371,15.525183 30.8793371,15.2293239 C30.8793371,14.9333607 30.7641835,14.6552177 30.5550311,14.4460634 L28.5853303,12.4762404 C28.153478,12.0446968 27.4508844,12.0444884 27.0189279,12.4763446 L25.3451876,14.1501002 C24.919067,13.928232 24.4748136,13.7442971 24.0161789,13.5998586 L24.0161789,11.2326737 C24.0160747,10.621989 23.5191945,10.125 22.9084111,10.125 L20.1227346,10.125 C19.5120555,10.125 19.0151753,10.6218848 19.0151753,11.2326737 L19.0151753,13.5998586 C18.5564364,13.7444013 18.1122872,13.928232 17.6860623,14.1501002 L16.0122179,12.4762404 C15.5803656,12.0445926 14.877772,12.0446968 14.4459197,12.4763446 L12.4763231,14.4459592 C12.2670665,14.6551135 12.1518086,14.9332565 12.1518086,15.2292197 C12.1518086,15.5250787 12.2670665,15.8032217 12.4762189,16.012376 L14.1499591,17.6861315 C13.9280929,18.1122561 13.7441597,18.5565136 13.5997226,19.0151524 L11.2325594,19.0151524 C10.6218802,19.0151524 10.125,19.5120372 10.125,20.1228261 L10.125,22.9085281 C10.125,23.5192128 10.6218802,24.0160976 11.2325594,24.0160976 L13.5997226,24.0160976 C13.7442639,24.4747364 13.9280929,24.9190981 14.1499591,25.3451185 L12.4762189,27.018874 C12.0443666,27.4507303 12.0443666,28.1534345 12.4762189,28.5852908 L14.4459197,30.5550096 C14.877772,30.98697 15.580574,30.9868658 16.0123221,30.5550096 L17.6860623,28.881254 C18.112183,29.1031223 18.5565406,29.2870572 19.0151753,29.4314956 L19.0151753,31.7986805 C19.0151753,32.4093652 19.5120555,32.90625 20.1227346,32.90625 L22.9084111,32.90625 C23.5190903,32.90625 24.0160747,32.4093652 24.0160747,31.7986805 L24.0160747,29.4314956 C24.4746051,29.2870572 24.9189628,29.1031223 25.3450834,28.881254 L27.0188237,30.5550096 C27.4507802,30.98697 28.153478,30.9868658 28.5853303,30.5550096 L30.5549269,28.5852908 C30.7640793,28.3761365 30.8792329,28.0979935 30.8792329,27.8021345 C30.8792329,27.5062755 30.7640793,27.2281325 30.5549269,27.018874 L28.8811866,25.3451185 C29.1030528,24.9189939 29.286986,24.4747364 29.4314231,24.0160976 L31.7985864,24.0160976 C32.4092655,24.0160976 32.90625,23.5192128 32.90625,22.9085281 L32.90625,20.1228261 C32.90625,19.5121414 32.4093698,19.0152566 31.7986906,19.0152566 Z M31.3432865,22.4529114 L28.8360631,22.4529114 C28.4729903,22.4529114 28.1577507,22.702917 28.0750068,23.0565097 C27.9083727,23.7688015 27.6286691,24.4444106 27.2436078,25.0643702 C27.0519629,25.372839 27.0981286,25.7725978 27.3548014,26.0294814 L29.1275425,27.8022387 L27.8021812,29.1276122 L26.0294401,27.3548548 C25.7726631,27.0980755 25.3729079,27.0518051 25.0642336,27.243556 C24.4441754,27.6286208 23.7685725,27.908327 23.0564956,28.0750668 C22.7029061,28.1577073 22.4529028,28.4729498 22.4529028,28.8361301 L22.4529028,31.3434807 L20.5786598,31.3434807 L20.5786598,28.8361301 C20.5786598,28.473054 20.3286565,28.1578115 19.975067,28.0750668 C19.2629901,27.9085354 18.5873872,27.6288293 17.9672248,27.243556 C17.6588631,27.052222 17.2590038,27.0980755 17.0021225,27.3548548 L15.2293814,29.1276122 L13.9040201,27.8022387 L15.6767612,26.0294814 C15.9335382,25.772702 15.9795997,25.3729432 15.788059,25.0643702 C15.4029977,24.4443064 15.1232942,23.7686973 14.95666,23.0565097 C14.8740204,22.702917 14.5586765,22.4529114 14.1956038,22.4529114 L11.6883803,22.4529114 L11.6883803,20.5786512 L14.1956038,20.5786512 C14.5586765,20.5786512 14.8739161,20.3286456 14.95666,19.9750529 C15.1232942,19.2628653 15.4029977,18.5872562 15.788059,17.9671924 C15.9795997,17.6587237 15.9335382,17.2589648 15.6767612,17.0020812 L13.9040201,15.2293239 L15.2293814,13.9039505 L17.0021225,15.6767078 C17.2586911,15.9334872 17.6586547,15.9796533 17.9672248,15.7880067 C18.5871788,15.4029418 19.2627817,15.1232357 19.975067,14.9566 C20.3286565,14.8739596 20.5786598,14.558717 20.5786598,14.1955368 L20.5786598,11.6881862 L22.4529028,11.6881862 L22.4529028,14.1955368 C22.4529028,14.5586128 22.7029061,14.8738554 23.0564956,14.9566 C23.7686767,15.1232357 24.4441754,15.4029418 25.0643378,15.7880067 C25.3725953,15.9794449 25.7725588,15.9332788 26.0294401,15.6767078 L27.8021812,13.9039505 L29.1275425,15.2293239 L27.3548014,17.0020812 C27.0980244,17.2588606 27.0519629,17.6586194 27.2436078,17.9671924 C27.6285649,18.5870478 27.9082685,19.2626569 28.0750068,19.9750529 C28.1577507,20.3286456 28.4728861,20.5786512 28.8360631,20.5786512 L31.3432865,20.5786512 L31.3432865,22.4529114 Z" id="Shape"></path>
                <path d="M21.9375,17.71875 C19.6112027,17.71875 17.71875,19.6113077 17.71875,21.9375 C17.71875,24.2636923 19.6113077,26.15625 21.9375,26.15625 C24.2636923,26.15625 26.15625,24.2636923 26.15625,21.9375 C26.15625,19.6113077 24.2637973,17.71875 21.9375,17.71875 Z M21.9375,24.581306 C20.4797318,24.581306 19.293694,23.3952682 19.293694,21.9375 C19.293694,20.4797318 20.4797318,19.293694 21.9375,19.293694 C23.3952682,19.293694 24.581306,20.4797318 24.581306,21.9375 C24.581306,23.3952682 23.3952682,24.581306 21.9375,24.581306 Z" id="Shape"></path>
                <path d="M3.42539397,21.09375 L0.793356025,21.09375 C0.355211938,21.09375 0,21.471525 0,21.9375 C0,22.403475 0.355211938,22.78125 0.793356025,22.78125 L3.42539397,22.78125 C3.86353806,22.78125 4.21875,22.403475 4.21875,21.9375 C4.21875,21.471525 3.86353806,21.09375 3.42539397,21.09375 Z" id="Path"></path>
                <path d="M42.237894,21.09375 L39.605856,21.09375 C39.1676062,21.09375 38.8125,21.471525 38.8125,21.9375 C38.8125,22.403475 39.1676062,22.78125 39.605856,22.78125 L42.237894,22.78125 C42.6761438,22.78125 43.03125,22.403475 43.03125,21.9375 C43.03125,21.471525 42.6760381,21.09375 42.237894,21.09375 Z" id="Path"></path>
                <path d="M9.05378735,33.9774626 C8.75060737,33.6741791 8.2588718,33.6741791 7.95548473,33.9774626 L6.13371265,35.7992347 C5.83042912,36.1025183 5.83042912,36.5942538 6.13371265,36.8975374 C6.43699618,37.2008209 6.92873175,37.2008209 7.23201527,36.8975374 L9.05378735,35.0757653 C9.35707088,34.7724817 9.35707088,34.2807462 9.05378735,33.9774626 Z" id="Path"></path>
                <path d="M36.8975443,6.13371526 C36.5941666,5.83042825 36.1025496,5.83042825 35.7991719,6.13371526 L33.9774557,7.9555083 C33.6741814,8.25879532 33.6741814,8.75053655 33.9774557,9.05382356 C34.2808334,9.35711058 34.7724504,9.35700704 35.0758281,9.05382356 L36.8975443,7.23203053 C37.2008186,6.92863996 37.2008186,6.43689874 36.8975443,6.13371526 Z" id="Path"></path>
                <path d="M21.9375,0 C21.4714125,0 21.09375,0.355211938 21.09375,0.793356025 L21.09375,3.42539397 C21.09375,3.86353806 21.4714125,4.21875 21.9375,4.21875 C22.4035875,4.21875 22.78125,3.86353806 22.78125,3.42539397 L22.78125,0.793356025 C22.78125,0.355211938 22.4035875,0 21.9375,0 Z" id="Path"></path>
                <path d="M36.8975443,35.7992347 L35.0758281,33.9774626 C34.7724504,33.6741791 34.2808334,33.6741791 33.9774557,33.9774626 C33.6741814,34.2807462 33.6741814,34.7725853 33.9774557,35.0757653 L35.7991719,36.8975374 C36.1025496,37.2008209 36.5941666,37.2008209 36.8975443,36.8975374 C37.2008186,36.5942538 37.2008186,36.1025183 36.8975443,35.7992347 Z" id="Path"></path>
                <path d="M9.05378735,7.95548473 L7.23201527,6.13371265 C6.92873175,5.83042912 6.43699618,5.83042912 6.13371265,6.13371265 C5.83042912,6.43699618 5.83042912,6.92873175 6.13371265,7.23201527 L7.95548473,9.05378735 C8.25876825,9.35707088 8.75050382,9.35707088 9.05378735,9.05378735 C9.35707088,8.75040028 9.35707088,8.25866471 9.05378735,7.95548473 Z" id="Path"></path>
                <path d="M37.1196938,19.3433795 C36.2908911,11.8856603 30.684381,5.97340781 23.6448462,5.0686281 C23.223308,5.01394718 22.8385324,5.33131307 22.7869825,5.77644822 C22.7355353,6.22169166 23.036106,6.62665529 23.458363,6.68101137 C29.8514707,7.50263277 34.8401012,12.7874082 35.5896281,19.5324348 C35.63553,19.9457359 35.968345,20.25 36.3535314,20.25 C36.3835166,20.25 36.4137071,20.2481593 36.4442057,20.2444778 C36.8668736,20.1923955 37.1691899,19.7889478 37.1196938,19.3433795 Z" id="Path"></path>
                <path d="M36.4433799,22.7607458 C36.0153287,22.7056548 35.6256523,23.0119148 35.5715739,23.4440221 C35.0398377,27.6902384 32.6691244,31.4369555 29.0672957,33.723129 C27.514518,34.7087752 26.5875936,36.3955706 26.5875936,38.2352332 L26.5875936,41.4804536 L16.5640604,41.4804536 L16.5640604,38.1634256 C16.5640604,36.3820081 15.6431678,34.6989976 14.1609,33.7713862 C9.96920091,31.1482532 7.4666195,26.6109164 7.4665155,21.6339026 C7.4665155,14.4476745 12.7909488,8.36179557 19.8516104,7.47760524 C20.2791416,7.42409122 20.5827086,7.03025329 20.5297742,6.59804086 C20.4768398,6.16593358 20.0874754,5.8582017 19.6597361,5.91245166 C11.8584086,6.88947673 5.90625,13.6717738 5.90625,21.6339026 C5.90625,24.381411 6.61311693,27.0884423 7.95062107,29.462404 C9.24715043,31.7638221 11.1106709,33.7174517 13.3395325,35.1122856 C14.3660859,35.7546641 15.0036909,36.9237719 15.0036909,38.1633205 L15.0036909,41.5952617 C14.2106105,41.873871 13.6387315,42.6352629 13.6387315,43.5307028 L13.6387315,44.6548125 C13.6387315,45.1307614 13.8013827,45.5682306 14.0714627,45.9165448 C13.8012787,46.264859 13.6387315,46.7022231 13.6387315,47.178277 L13.6387315,48.3022817 C13.6387315,49.4328047 14.5486004,50.3525309 15.6667751,50.3525309 L18.119022,50.3525309 L18.119022,52.1351049 C18.119022,53.1634361 18.9465254,54 19.963615,54 L23.187207,54 C24.2044007,54 25.0318,53.1634361 25.0318,52.1351049 L25.0318,50.3525309 L27.4840469,50.3525309 C28.6023256,50.3525309 29.5120905,49.4326996 29.5120905,48.3022817 L29.5120905,47.178277 C29.5120905,46.7023282 29.3494393,46.264859 29.0792554,45.9165448 C29.3494393,45.5682306 29.5120905,45.1308665 29.5120905,44.6548125 L29.5120905,43.5307028 C29.5120905,42.6351578 28.9403155,41.873871 28.1471312,41.5952617 L28.1471312,38.2351281 C28.1471312,36.9414346 28.8009597,35.7540332 29.896359,35.0587716 C33.8954558,32.5203778 36.5280334,28.359111 37.1186318,23.6420975 C37.1732302,23.2099902 36.8707032,22.8154164 36.4433799,22.7607458 Z M23.4720545,52.1349997 C23.4720545,52.2909158 23.3417464,52.4227558 23.187519,52.4227558 L19.963927,52.4227558 C19.8096996,52.4227558 19.6793915,52.2910209 19.6793915,52.1349997 L19.6793915,50.3524257 L23.4720545,50.3524257 L23.4720545,52.1349997 Z M27.952449,48.3021765 C27.952449,48.5586022 27.7381113,48.7752867 27.4844629,48.7752867 C26.1075439,48.7752867 16.9664244,48.7752867 15.6670871,48.7752867 C15.4134387,48.7752867 15.199101,48.5586022 15.199101,48.3021765 L15.199101,47.1781719 C15.199101,46.9217462 15.4134387,46.7050617 15.6670871,46.7050617 L27.4844629,46.7050617 C27.7381113,46.7050617 27.952449,46.9217462 27.952449,47.1781719 L27.952449,48.3021765 Z M27.952449,44.6547074 C27.952449,44.9111331 27.7381113,45.1278176 27.4844629,45.1278176 L15.6670871,45.1278176 C15.4134387,45.1278176 15.199101,44.9111331 15.199101,44.6547074 L15.199101,43.5305976 C15.199101,43.2741719 15.4134387,43.0574875 15.6670871,43.0574875 L27.4844629,43.0574875 C27.7381113,43.0574875 27.952449,43.2741719 27.952449,43.5305976 L27.952449,44.6547074 Z" id="Shape"></path>
            </g>
        </g>
    </g>
</svg>